<?xml version="1.0" encoding="UTF-8" standalone="no"?>
<svg
   xmlns:dc="http://purl.org/dc/elements/1.1/"
   xmlns:cc="http://creativecommons.org/ns#"
   xmlns:rdf="http://www.w3.org/1999/02/22-rdf-syntax-ns#"
   xmlns:svg="http://www.w3.org/2000/svg"
   xmlns="http://www.w3.org/2000/svg"
   xmlns:xlink="http://www.w3.org/1999/xlink"
   width="512"
   height="512"
   viewBox="0 0 511.99999 511.99999"
   id="svg2"
   version="1.1">
  <defs
     id="defs4">
    <linearGradient
       id="linearGradient4181">
      <stop
         style="stop-color:#000000;stop-opacity:1;"
         offset="0"
         id="stop4183" />
      <stop
         style="stop-color:#000000;stop-opacity:0;"
         offset="1"
         id="stop4185" />
    </linearGradient>
    <linearGradient
       xlink:href="#linearGradient4181"
       id="linearGradient4187"
       x1="244.22203"
       y1="223.66209"
       x2="740"
       y2="729.95245"
       gradientUnits="userSpaceOnUse"
       gradientTransform="matrix(0.98828488,0,0,0.98828488,-132.61534,-64.3377)" />
  </defs>
  <metadata
     id="metadata7">
    <rdf:RDF>
      <cc:Work
         rdf:about="">
        <dc:format>image/svg+xml</dc:format>
        <dc:type
           rdf:resource="http://purl.org/dc/dcmitype/StillImage" />
        <dc:title />
      </cc:Work>
    </rdf:RDF>
  </metadata>
  <g
     id="layer1"
     transform="translate(0,-540.36219)">
    <g
       id="g4192"
       transform="matrix(0.98828488,0,0,0.98828488,-132.61534,462.02449)">
      <circle
         r="255.49313"
         cy="338.30093"
         cx="393.22198"
         id="path4138"
         style="opacity:1;fill:#816dc3;fill-opacity:1;stroke:none;stroke-width:1.0137254;stroke-miterlimit:4;stroke-dasharray:none;stroke-dashoffset:0;stroke-opacity:1" />
      <path
         style="opacity:0.42900002;fill:url(#linearGradient4187);fill-opacity:1;stroke:none;stroke-width:0.97795278;stroke-miterlimit:4;stroke-dasharray:none;stroke-dashoffset:0;stroke-opacity:1"
         d="M 124.0918 161.57812 L 108.74609 176.92383 L 182.50977 250.6875 C 157.92131 275.27598 133.33456 299.86466 108.74609 324.45312 L 290.17969 505.88672 A 252.5 252.5 0 0 0 480.52344 370.98438 L 403.25586 293.7168 L 341.71875 298.76367 L 254.33398 211.38086 L 228.08594 237.63086 L 178.88477 188.43359 L 164.91602 202.40234 L 124.0918 161.57812 z "
         transform="matrix(1.011854,0,0,1.011854,134.18736,79.266314)"
         id="rect4155" />
      <g
         transform="translate(-7.5e-4,14.166446)"
         id="g4177">
        <path
           id="path4145"
           style="font-style:normal;font-variant:normal;font-weight:bold;font-stretch:normal;font-size:180px;line-height:125%;font-family:sans-serif;-inkscape-font-specification:'sans-serif Bold';letter-spacing:0px;word-spacing:0px;fill:#000000;fill-opacity:1;stroke:none;stroke-width:1px;stroke-linecap:butt;stroke-linejoin:miter;stroke-opacity:1"
           d="m 244.22277,244.12182 1e-5,-40.92043 147.31501,75.78462 0,38.62888 -147.31502,75.78461 0,-40.92042 110.88845,-54.01496 -110.88845,-54.3423 z" />
        <path
           id="path4147"
           style="font-style:normal;font-variant:normal;font-weight:bold;font-stretch:normal;font-size:180px;line-height:125%;font-family:sans-serif;-inkscape-font-specification:'sans-serif Bold';letter-spacing:0px;word-spacing:0px;fill:#000000;fill-opacity:1;stroke:none;stroke-width:1px;stroke-linecap:butt;stroke-linejoin:miter;stroke-opacity:1"
           d="m 542.22271,362.29998 -10e-6,31.09952 -117.66815,0 0,-31.09952 117.66816,0 z" />
      </g>
    </g>
  </g>
</svg>
